Lab 2 Practice
…
head(icecream)

   id female ice_cream video puzzle
1  70      0         2    47     57
2 121      1         1    63     61
3  86      0         3    58     31
4 141      0         3    53     56
5 172      0         1    53     61
6 113      0         1    63     61

icecream <- as_tibble(icecream)
icecream

# A tibble: 200 x 5
      id female ice_cream video puzzle
   <int>  <int> <fct>     <int>  <int>
 1    70      0 2            47     57
 2   121      1 1            63     61
 3    86      0 3            58     31
 4   141      0 3            53     56
 5   172      0 1            53     61
 6   113      0 1            63     61
 7    50      0 1            53     61
 8    11      0 1            39     36
 9    84      0 1            58     51
10    48      0 1            50     51
# … with 190 more rows

icecream %>% filter(female==0)

# A tibble: 91 x 5
      id female ice_cream video puzzle
   <int>  <int> <fct>     <int>  <int>
 1    70      0 2            47     57
 2    86      0 3            58     31
 3   141      0 3            53     56
 4   172      0 1            53     61
 5   113      0 1            63     61
 6    50      0 1            53     61
 7    11      0 1            39     36
 8    84      0 1            58     51
 9    48      0 1            50     51
10    75      0 1            53     61
# … with 81 more rows

icecream %>% filter(female==1, video<50)

# A tibble: 41 x 5
      id female ice_cream video puzzle
   <int>  <int> <fct>     <int>  <int>
 1     8      1 2            44     48
 2   129      1 2            47     51
 3     1      1 2            39     41
 4    47      1 2            33     41
 5    65      1 1            42     56
 6     4      1 2            39     51
 7   131      1 3            46     66
 8   106      1 1            42     41
 9    37      1 2            39     51
10    73      1 1            39     56
# … with 31 more rows
…
# Question: filter iris dataset for Species equal to "setosa" or "virginica"

arrange: reorder cases

icecream %>% arrange(video) # order 'video' column in ascending order

# A tibble: 200 x 5
      id female ice_cream video puzzle
   <int>  <int> <fct>     <int>  <int>
 1    15      0 3            26     42
 2    45      1 2            29     26
 3    38      0 2            31     56
 4    51      1 3            31     39
 5    67      0 2            33     32
 6    47      1 2            33     41
 7   134      0 2            34     46
 8   133      0 1            34     31
 9    44      1 2            34     46
10    46      1 2            34     41
# … with 190 more rows

icecream %>% arrange(desc(puzzle)) # order 'puzzle' column in descending order

# A tibble: 200 x 5
      id female ice_cream video puzzle
   <int>  <int> <fct>     <int>  <int>
 1    95      0 3            61     71
 2   192      0 3            66     71
 3   183      0 1            55     71
 4   100      1 3            69     71
 5   180      1 3            58     71
 6   139      1 1            55     71
 7    59      1 1            55     71
 8    23      1 2            58     71
 9   143      0 1            72     66
10   154      0 3            61     66
# … with 190 more rows

as_tibble(iris) %>% arrange(Petal.Length)

# A tibble: 150 x 5
   Sepal.Length Sepal.Width Petal.Length Petal.Width Species
          <dbl>       <dbl>        <dbl>       <dbl> <fct>  
 1          4.6         3.6          1           0.2 setosa 
 2          4.3         3            1.1         0.1 setosa 
 3          5.8         4            1.2         0.2 setosa 
 4          5           3.2          1.2         0.2 setosa 
 5          4.7         3.2          1.3         0.2 setosa 
 6          5.4         3.9          1.3         0.4 setosa 
 7          5.5         3.5          1.3         0.2 setosa 
 8          4.4         3            1.3         0.2 setosa 
 9          5           3.5          1.3         0.3 setosa 
10          4.5         2.3          1.3         0.3 setosa 
# … with 140 more rows

as_tibble(iris) %>% arrange(desc(Sepal.Length))

# A tibble: 150 x 5
   Sepal.Length Sepal.Width Petal.Length Petal.Width Species  
          <dbl>       <dbl>        <dbl>       <dbl> <fct>    
 1          7.9         3.8          6.4         2   virginica
 2          7.7         3.8          6.7         2.2 virginica
 3          7.7         2.6          6.9         2.3 virginica
 4          7.7         2.8          6.7         2   virginica
 5          7.7         3            6.1         2.3 virginica
 6          7.6         3            6.6         2.1 virginica
 7          7.4         2.8          6.1         1.9 virginica
 8          7.3         2.9          6.3         1.8 virginica
 9          7.2         3.6          6.1         2.5 virginica
10          7.2         3.2          6           1.8 virginica
# … with 140 more rows

# Question: 1) filter iris dataset for Species equal to "setosa" and 2) sort  in descending order of Sepal.Width  

mutate: add new variables that are functions of existing variables

icecream_new <- icecream %>% mutate(puzzle100 = puzzle*100)
icecream_new

# A tibble: 200 x 6
      id female ice_cream video puzzle puzzle100
   <int>  <int> <fct>     <int>  <int>     <dbl>
 1    70      0 2            47     57      5700
 2   121      1 1            63     61      6100
 3    86      0 3            58     31      3100
 4   141      0 3            53     56      5600
 5   172      0 1            53     61      6100
 6   113      0 1            63     61      6100
 7    50      0 1            53     61      6100
 8    11      0 1            39     36      3600
 9    84      0 1            58     51      5100
10    48      0 1            50     51      5100
# … with 190 more rows
…
